<?xml version="1.0" encoding="utf-8"?>
<!-- Generator: Adobe Illustrator 24.1.1, SVG Export Plug-In . SVG Version: 6.00 Build 0)  -->
<svg version="1.1" id="Capa_1" xmlns="http://www.w3.org/2000/svg" xmlns:xlink="http://www.w3.org/1999/xlink" x="0px" y="0px"
	 viewBox="0 0 512 512" style="enable-background:new 0 0 512 512;" xml:space="preserve">
<style type="text/css">
	.st0{fill:#93CAE2;}
	.st1{fill:#FBCC34;}
	.st2{fill:#06AAE9;}
	.st3{fill:#ED1C24;}
	.st4{fill:#FF1D25;}
	.st5{fill:#7AC943;}
</style>
<path class="st0" d="M506,0c-2.9,2.4-5.8,4.8-8.7,7.2C357.1,121.8,184.4,189.4,3.7,200.4l-3.6,0.2l95.9,95.9l43.6-113.4l104.7,78.5
	l34.9-122.1L392.6,218l8.7-139.5L506,130.8V0z"/>
<g>
	<path class="st1" d="M0,279.1c3.1,1.9,6.2,3.9,9.4,5.8C158,375.6,332.1,415.5,505.5,398.7l3.4-0.3l-72.7,107.4l-61-104.7L288,497.1
		l-43.6-113.4l-104.7,87.2l-26.2-130.8l-95.9,69.8L0,279.1"/>
	<circle class="st1" cx="444.9" cy="287.8" r="17.4"/>
</g>
<circle class="st2" cx="43.8" cy="470.9" r="17.4"/>
<circle class="st3" cx="113.5" cy="61" r="17.4"/>
<path class="st1" d="M2.7,84.7L15,72.3l17.4,17.4l-12.3,12.3L2.7,84.7z"/>
<path class="st4" d="M349,26.2h17.4v26.2H349V26.2z"/>
<path class="st2" d="M229.5,20l17.4-17.4l12.3,12.3l-17.4,17.4L229.5,20z"/>
<g>
	<path class="st5" d="M151,133.4l17.4-17.4l12.3,12.3l-17.4,17.4L151,133.4z"/>
	<path class="st5" d="M456.2,163.2l12.3-12.3l17.4,17.4l-12.3,12.3L456.2,163.2z"/>
</g>
<path class="st4" d="M305.4,235.5h17.4v26.2h-17.4V235.5z"/>
<path class="st5" d="M351.6,342.7l17.4-17.4l12.3,12.3L363.9,355L351.6,342.7z"/>
<path class="st2" d="M151,294l12.3-12.3l17.4,17.4l-12.3,12.3L151,294z"/>
<path class="st5" d="M209.5,462.2h17.4v26.2h-17.4V462.2z"/>
<path class="st2" d="M72.4,416.1l12.3-12.3l17.4,17.4l-12.3,12.3L72.4,416.1z"/>
<path class="st4" d="M81.2,499.7l17.4-17.4l12.3,12.3L93.5,512L81.2,499.7z"/>
<path class="st2" d="M351.6,490.9l17.4-17.4l12.3,12.3l-17.4,17.4L351.6,490.9z"/>
</svg>
